…
# htmlwidgets::saveWidget(dt, file = "WGI_DT.html")
# write_csv(df, file = "./WGI_cleaned.csv")

print(df)
## # A tibble: 27,591 × 8
##    country_name country_code indicator…¹ year        value conti…² iso2c unico…³
##    <chr>        <chr>        <chr>       <date>      <dbl> <chr>   <chr> <chr>  
##  1 afghanistan  afg          control of… 1996-12-31 -1.29  asia    AF    "\U000…
##  2 afghanistan  afg          government… 1996-12-31 -2.18  asia    AF    "\U000…
##  3 afghanistan  afg          political … 1996-12-31 -2.42  asia    AF    "\U000…
##  4 afghanistan  afg          regulatory… 1996-12-31 -2.09  asia    AF    "\U000…
##  5 afghanistan  afg          rule of law 1996-12-31 -1.79  asia    AF    "\U000…
##  6 afghanistan  afg          voice and … 1996-12-31 -1.91  asia    AF    "\U000…
##  7 albania      alb          control of… 1996-12-31 -0.894 europe  AL    "\U000…
##  8 albania      alb          government… 1996-12-31 -0.689 europe  AL    "\U000…
##  9 albania      alb          political … 1996-12-31 -0.337 europe  AL    "\U000…
## 10 albania      alb          regulatory… 1996-12-31 -0.474 europe  AL    "\U000…
## # … with 27,581 more rows, and abbreviated variable names ¹​indicator_name,
## #   ²​continent, ³​unicode_symbol
…
                        # hc_subtitle(text = "<i>2021</i>",
                        #             margin = 20,
                        #             floating= FALSE,
                        #             align = "center",
                        #             style = list(fontSize = "28px",
                        #                          color = "#e1a615",
                        #                          useHTML = TRUE))

print(corruption)
## # A tibble: 4,566 × 8
##    country_name        country_…¹ indic…² year       value conti…³ iso2c unico…⁴
##    <chr>               <chr>      <chr>   <date>     <dbl> <chr>   <chr> <chr>  
##  1 Afghanistan         AFG        contro… 1996-12-31 -1.29 asia    AF    "\U000…
##  2 Albania             ALB        contro… 1996-12-31 -0.89 europe  AL    "\U000…
##  3 Algeria             DZA        contro… 1996-12-31 -0.57 africa  DZ    "\U000…
##  4 Andorra             AND        contro… 1996-12-31  1.32 europe  AD    "\U000…
##  5 Angola              AGO        contro… 1996-12-31 -1.17 africa  AO    "\U000…
##  6 Antigua And Barbuda ATG        contro… 1996-12-31  0.87 south … AG    "\U000…
##  7 Argentina           ARG        contro… 1996-12-31 -0.1  south … AR    "\U000…
##  8 Armenia             ARM        contro… 1996-12-31 -0.47 asia    AM    "\U000…
##  9 Australia           AUS        contro… 1996-12-31  1.88 oceania AU    "\U000…
## 10 Austria             AUT        contro… 1996-12-31  1.73 europe  AT    "\U000…
## # … with 4,556 more rows, and abbreviated variable names ¹​country_code,
## #   ²​indicator_name, ³​continent, ⁴​unicode_symbol
…
