…
This data was retrieved from the World Bank.

Raw Data

View Resume

print(df)
## # A tibble: 7,704 × 28
##    Country N…¹ Count…² Indic…³ Indic…⁴ `1996` `1998` `2000` `2002` `2003` `2004`
##    <chr>       <chr>   <chr>   <chr>    <dbl>  <dbl>  <dbl>  <dbl>  <dbl>  <dbl>
##  1 Afghanistan AFG     Contro… CC.EST  -1.29  -1.18  -1.27  -1.25  -1.34  -1.35 
##  2 Afghanistan AFG     Contro… CC.NO.…  2      2      2      2      3      5    
##  3 Afghanistan AFG     Contro… CC.PER…  4.30   8.02   4.79   4.76   4.76   6.40 
##  4 Afghanistan AFG     Contro… CC.PER…  0      0      0      0      0      0    
##  5 Afghanistan AFG     Contro… CC.PER… 27.4   33.7   30.9   32.8   19.0   15.3  
##  6 Afghanistan AFG     Contro… CC.STD…  0.341  0.324  0.347  0.353  0.270  0.213
##  7 Afghanistan AFG     Govern… GE.EST  -2.18  -2.10  -2.17  -1.59  -1.13  -0.910
##  8 Afghanistan AFG     Govern… GE.NO.…  1      1      1      2      2      4    
##  9 Afghanistan AFG     Govern… GE.PER…  0      0      0      2.16  11.4   18.9  
## 10 Afghanistan AFG     Govern… GE.PER…  0      0      0      0      1.62   5.97 
## # … with 7,694 more rows, 18 more variables: `2005` <dbl>, `2006` <dbl>,
## #   `2007` <dbl>, `2008` <dbl>, `2009` <dbl>, `2010` <dbl>, `2011` <dbl>,
## #   `2012` <dbl>, `2013` <dbl>, `2014` <dbl>, `2015` <dbl>, `2016` <dbl>,
## #   `2017` <dbl>, `2018` <dbl>, `2019` <dbl>, `2020` <dbl>, `2021` <dbl>,
## #   ...28 <lgl>, and abbreviated variable names ¹​`Country Name`,
## #   ²​`Country Code`, ³​`Indicator Name`, ⁴​`Indicator Code`
…
During the preparation I had to pivot the years into a single variable and add the corresponding continent to each country.

# Pivoting
df_wgi <- df %>%
          pivot_longer(-c(1:4), names_to = "year", values_to = "value") %>% 
          clean_names() %>% 
          select(-indicator_code)

# Adding Continents
df_wgi <- df_wgi %>% 
            inner_join(countrycode::codelist %>% select(continent, cow.name), 
                       by = c(country_name = "cow.name"))
print(df_wgi)
## # A tibble: 145,152 × 6
##    country_name country_code indicator_name                  year  value conti…¹
##    <chr>        <chr>        <chr>                           <chr> <dbl> <chr>  
##  1 Afghanistan  AFG          Control of Corruption: Estimate 1996  -1.29 Asia   
##  2 Afghanistan  AFG          Control of Corruption: Estimate 1998  -1.18 Asia   
##  3 Afghanistan  AFG          Control of Corruption: Estimate 2000  -1.27 Asia   
##  4 Afghanistan  AFG          Control of Corruption: Estimate 2002  -1.25 Asia   
##  5 Afghanistan  AFG          Control of Corruption: Estimate 2003  -1.34 Asia   
##  6 Afghanistan  AFG          Control of Corruption: Estimate 2004  -1.35 Asia   
##  7 Afghanistan  AFG          Control of Corruption: Estimate 2005  -1.45 Asia   
##  8 Afghanistan  AFG          Control of Corruption: Estimate 2006  -1.45 Asia   
##  9 Afghanistan  AFG          Control of Corruption: Estimate 2007  -1.61 Asia   
## 10 Afghanistan  AFG          Control of Corruption: Estimate 2008  -1.67 Asia   
## # … with 145,142 more rows, and abbreviated variable name ¹​continent
…
